/* Log generated by MTK SP DrvGen Version 03.13.6;
 Log Time is Wed May 30 17:24:53 2018
 */
open operater parse MT6735M.fig OK!
Gencode operater parse .cmp file OK!
Gencode cust_eint_md1.h OK!
Gencode cust_power.h OK!
Edit operater parse .cmp file OK!
Gencode operater parse .cmp file OK!
Gencode cust_eint_md1.h OK!
Gencode cust_power.h OK!
open operater parse MT6735M.fig OK!
Edit operater parse .cmp file OK!
Gencode operater parse .cmp file OK!
Gencode cust_eint_md1.h OK!
Gencode cust_power.h OK!
Edit operater parse .cmp file OK!
open operater parse MT6735M.fig OK!
Edit operater parse .cmp file OK!
Edit operater parse .cmp file OK!
open operater parse MT6735M.fig OK!
Edit operater parse .cmp file OK!
Gencode operater parse .cmp file OK!
Gencode cust_eint_md1.h OK!
Gencode cust_power.h OK!
